<define-tag pagetitle>DLA-3184-1 libjettison-java</define-tag>
<define-tag report_date>2022-11-10</define-tag>
<define-tag secrefs>CVE-2022-40149 Bug#1022554</define-tag>
<define-tag packages>libjettison-java</define-tag>
<define-tag isvulnerable>yes</define-tag>
<define-tag fixed>yes</define-tag>
<define-tag fixed-section>no</define-tag>

#use wml::debian::security

