<define-tag pagetitle>DLA-3026-1 filezilla</define-tag>
<define-tag report_date>2022-05-26</define-tag>
<define-tag secrefs>CVE-2019-5429</define-tag>
<define-tag packages>filezilla</define-tag>
<define-tag isvulnerable>yes</define-tag>
<define-tag fixed>yes</define-tag>
<define-tag fixed-section>no</define-tag>

#use wml::debian::security

