<define-tag pagetitle>DLA-2771-1 krb5</define-tag>
<define-tag report_date>2021-09-30</define-tag>
<define-tag secrefs>CVE-2018-5729 CVE-2018-5730 CVE-2018-20217 CVE-2021-37750 Bug#891869 Bug#917387 Bug#992607</define-tag>
<define-tag packages>krb5</define-tag>
<define-tag isvulnerable>yes</define-tag>
<define-tag fixed>yes</define-tag>
<define-tag fixed-section>no</define-tag>

#use wml::debian::security

