<define-tag pagetitle>DLA-2836-1 nss</define-tag>
<define-tag report_date>2021-12-06</define-tag>
<define-tag secrefs>CVE-2021-43527</define-tag>
<define-tag packages>nss</define-tag>
<define-tag isvulnerable>yes</define-tag>
<define-tag fixed>yes</define-tag>
<define-tag fixed-section>no</define-tag>

#use wml::debian::security

