<define-tag pagetitle>DLA-1115-1 debsecan</define-tag>
<define-tag report_date>2017-9-27</define-tag>
<define-tag secrefs>Bug#842428</define-tag>
<define-tag packages>debsecan</define-tag>
<define-tag isvulnerable>yes</define-tag>
<define-tag fixed>yes</define-tag>
<define-tag fixed-section>no</define-tag>

#use wml::debian::security

