<define-tag pagetitle>DLA-812-1 ikiwiki</define-tag>
<define-tag report_date>2017-1-31</define-tag>
<define-tag secrefs>CVE-2016-9646 CVE-2016-10026 CVE-2017-0356</define-tag>
<define-tag packages>ikiwiki</define-tag>
<define-tag isvulnerable>yes</define-tag>
<define-tag fixed>yes</define-tag>
<define-tag fixed-section>no</define-tag>

#use wml::debian::security

