<define-tag pagetitle>DLA-958-1 libonig</define-tag>
<define-tag report_date>2017-5-28</define-tag>
<define-tag secrefs>CVE-2017-9224 CVE-2017-9226 CVE-2017-9227 CVE-2017-9228 CVE-2017-9229 Bug#863312 Bug#863314 Bug#863315 Bug#863316 Bug#863318</define-tag>
<define-tag packages>libonig</define-tag>
<define-tag isvulnerable>yes</define-tag>
<define-tag fixed>yes</define-tag>
<define-tag fixed-section>no</define-tag>

#use wml::debian::security

