<define-tag pagetitle>DLA-3283-1 modsecurity-apache</define-tag>
<define-tag report_date>2023-01-26</define-tag>
<define-tag secrefs>CVE-2022-48279 CVE-2023-24021 Bug#1029329</define-tag>
<define-tag packages>modsecurity-apache</define-tag>
<define-tag isvulnerable>yes</define-tag>
<define-tag fixed>yes</define-tag>
<define-tag fixed-section>no</define-tag>

#use wml::debian::security

