<define-tag pagetitle>DLA-2060-1 phpmyadmin</define-tag>
<define-tag report_date>2020-01-16</define-tag>
<define-tag secrefs>CVE-2020-5504 Bug#948718</define-tag>
<define-tag packages>phpmyadmin</define-tag>
<define-tag isvulnerable>yes</define-tag>
<define-tag fixed>yes</define-tag>
<define-tag fixed-section>no</define-tag>

#use wml::debian::security

