<define-tag pagetitle>DLA-2075-1 jsoup</define-tag>
<define-tag report_date>2020-1-26</define-tag>
<define-tag secrefs>CVE-2015-6748</define-tag>
<define-tag packages>jsoup</define-tag>
<define-tag isvulnerable>yes</define-tag>
<define-tag fixed>yes</define-tag>
<define-tag fixed-section>no</define-tag>

#use wml::debian::security

