<define-tag pagetitle>DLA-2202-1 ansible</define-tag>
<define-tag report_date>2020-05-05</define-tag>
<define-tag secrefs>CVE-2019-14846 CVE-2020-1733 CVE-2020-1739 CVE-2020-1740 Bug#942188</define-tag>
<define-tag packages>ansible</define-tag>
<define-tag isvulnerable>yes</define-tag>
<define-tag fixed>yes</define-tag>
<define-tag fixed-section>no</define-tag>

#use wml::debian::security

