<define-tag pagetitle>DLA-2094-1 sudo</define-tag>
<define-tag report_date>2020-02-02</define-tag>
<define-tag secrefs>CVE-2019-18634</define-tag>
<define-tag packages>sudo</define-tag>
<define-tag isvulnerable>yes</define-tag>
<define-tag fixed>yes</define-tag>
<define-tag fixed-section>no</define-tag>

#use wml::debian::security

