<define-tag pagetitle>DLA-2294-1 salt</define-tag>
<define-tag report_date>2020-7-28</define-tag>
<define-tag secrefs>CVE-2018-15750 CVE-2018-15751</define-tag>
<define-tag packages>salt</define-tag>
<define-tag isvulnerable>yes</define-tag>
<define-tag fixed>yes</define-tag>
<define-tag fixed-section>no</define-tag>

#use wml::debian::security

