<define-tag pagetitle>DLA-1542-1 dnsruby</define-tag>
<define-tag report_date>2018-10-11</define-tag>
<define-tag secrefs>Bug#908887</define-tag>
<define-tag packages>dnsruby</define-tag>
<define-tag isvulnerable>yes</define-tag>
<define-tag fixed>yes</define-tag>
<define-tag fixed-section>no</define-tag>

#use wml::debian::security

