<define-tag pagetitle>DLA-1475-1 tomcat-native</define-tag>
<define-tag report_date>2018-8-22</define-tag>
<define-tag secrefs>CVE-2018-8019 CVE-2018-8020</define-tag>
<define-tag packages>tomcat-native</define-tag>
<define-tag isvulnerable>yes</define-tag>
<define-tag fixed>yes</define-tag>
<define-tag fixed-section>no</define-tag>

#use wml::debian::security

