<define-tag pagetitle>DSA-5126-1 ffmpeg</define-tag>
<define-tag report_date>2022-5-01</define-tag>
<define-tag packages>ffmpeg</define-tag>
<define-tag isvulnerable>yes</define-tag>
<define-tag fixed>yes</define-tag>
<define-tag fixed-section>no</define-tag>

#use wml::debian::security



</dl>
