<define-tag pagetitle>DLA-457-1 mplayer</define-tag>
<define-tag report_date>2016-5-4</define-tag>
<define-tag secrefs>CVE-2016-4352</define-tag>
<define-tag packages>mplayer</define-tag>
<define-tag isvulnerable>yes</define-tag>
<define-tag fixed>yes</define-tag>
<define-tag fixed-section>no</define-tag>

#use wml::debian::security

