<define-tag pagetitle>DLA-762-1 exim4</define-tag>
<define-tag report_date>2016-12-25</define-tag>
<define-tag secrefs>CVE-2016-9963</define-tag>
<define-tag packages>exim4</define-tag>
<define-tag isvulnerable>yes</define-tag>
<define-tag fixed>yes</define-tag>
<define-tag fixed-section>no</define-tag>

#use wml::debian::security

